{
  "info": {
    "count": 309,
    "pages": 16,
    "next": "https://rickandmortyapi.com/api/character/?page=2&gender=male&status=alive",
    "prev": null
  },
  "results": [
    {
      "id": 1,
      "name": "Rick Sanchez",
      "status": "Alive",
      "species": "Human",
      "type": "",
      "gender": "Male",
      "origin": {
        "name": "Earth (C-137)",
        "url": "https://rickandmortyapi.com/api/location/1"
      },
      "location": {
        "name": "Citadel of Ricks",
        "url": "https://rickandmortyapi.com/api/location/3"
      },
      "image": "https://rickandmortyapi.com/api/character/avatar/1.jpeg",
      "episode": [
        "https://rickandmortyapi.com/api/episode/1",
        "https://rickandmortyapi.com/api/episode/2",
        "https://rickandmortyapi.com/api/episode/3",
        "https://rickandmortyapi.com/api/episode/4",
        "https://rickandmortyapi.com/api/episode/5",
        "https://rickandmortyapi.com/api/episode/6",
        "https://rickandmortyapi.com/api/episode/7",
        "https://rickandmortyapi.com/api/episode/8",
        "https://rickandmortyapi.com/api/episode/9",
        "https://rickandmortyapi.com/api/episode/10",
        "https://rickandmortyapi.com/api/episode/11",
        "https://rickandmortyapi.com/api/episode/12",
        "https://rickandmortyapi.com/api/episode/13",
        "https://rickandmortyapi.com/api/episode/14",
        "https://rickandmortyapi.com/api/episode/15",
        "https://rickandmortyapi.com/api/episode/16",
        "https://rickandmortyapi.com/api/episode/17",
        "https://rickandmortyapi.com/api/episode/18",
        "https://rickandmortyapi.com/api/episode/19",
        "https://rickandmortyapi.com/api/episode/20",
        "https://rickandmortyapi.com/api/episode/21",
        "https://rickandmortyapi.com/api/episode/22",
        "https://rickandmortyapi.com/api/episode/23",
        "https://rickandmortyapi.com/api/episode/24",
        "https://rickandmortyapi.com/api/episode/25",
        "https://rickandmortyapi.com/api/episode/26",
        "https://rickandmortyapi.com/api/episode/27",
        "https://rickandmortyapi.com/api/episode/28",
        "https://rickandmortyapi.com/api/episode/29",
        "https://rickandmortyapi.com/api/episode/30",
        "https://rickandmortyapi.com/api/episode/31",
        "https://rickandmortyapi.com/api/episode/32",
        "https://rickandmortyapi.com/api/episode/33",
        "https://rickandmortyapi.com/api/episode/34",
        "https://rickandmortyapi.com/api/episode/35",
        "https://rickandmortyapi.com/api/episode/36",
        "https://rickandmortyapi.com/api/episode/37",
        "https://rickandmortyapi.com/api/episode/38",
        "https://rickandmortyapi.com/api/episode/39",
        "https://rickandmortyapi.com/api/episode/40",
        "https://rickandmortyapi.com/api/episode/41",
        "https://rickandmortyapi.com/api/episode/42",
        "https://rickandmortyapi.com/api/episode/43",
        "https://rickandmortyapi.com/api/episode/44",
        "https://rickandmortyapi.com/api/episode/45",
        "https://rickandmortyapi.com/api/episode/46",
        "https://rickandmortyapi.com/api/episode/47",
        "https://rickandmortyapi.com/api/episode/48",
        "https://rickandmortyapi.com/api/episode/49",
        "https://rickandmortyapi.com/api/episode/50",
        "https://rickandmortyapi.com/api/episode/51"
      ],
      "url": "https://rickandmortyapi.com/api/character/1",
      "created": "2017-11-04T18:48:46.250Z"
    },
    {
      "id": 2,
      "name": "Morty Smith",
      "status": "Alive",
      "species": "Human",
      "type": "",
      "gender": "Male",
      "origin": {
        "name": "unknown",
        "url": ""
      },
      "location": {
        "name": "Citadel of Ricks",
        "url": "https://rickandmortyapi.com/api/location/3"
      },
      "image": "https://rickandmortyapi.com/api/character/avatar/2.jpeg",
      "episode": [
        "https://rickandmortyapi.com/api/episode/1",
        "https://rickandmortyapi.com/api/episode/2",
        "https://rickandmortyapi.com/api/episode/3",
        "https://rickandmortyapi.com/api/episode/4",
        "https://rickandmortyapi.com/api/episode/5",
        "https://rickandmortyapi.com/api/episode/6",
        "https://rickandmortyapi.com/api/episode/7",
        "https://rickandmortyapi.com/api/episode/8",
        "https://rickandmortyapi.com/api/episode/9",
        "https://rickandmortyapi.com/api/episode/10",
        "https://rickandmortyapi.com/api/episode/11",
        "https://rickandmortyapi.com/api/episode/12",
        "https://rickandmortyapi.com/api/episode/13",
        "https://rickandmortyapi.com/api/episode/14",
        "https://rickandmortyapi.com/api/episode/15",
        "https://rickandmortyapi.com/api/episode/16",
        "https://rickandmortyapi.com/api/episode/17",
        "https://rickandmortyapi.com/api/episode/18",
        "https://rickandmortyapi.com/api/episode/19",
        "https://rickandmortyapi.com/api/episode/20",
        "https://rickandmortyapi.com/api/episode/21",
        "https://rickandmortyapi.com/api/episode/22",
        "https://rickandmortyapi.com/api/episode/23",
        "https://rickandmortyapi.com/api/episode/24",
        "https://rickandmortyapi.com/api/episode/25",
        "https://rickandmortyapi.com/api/episode/26",
        "https://rickandmortyapi.com/api/episode/27",
        "https://rickandmortyapi.com/api/episode/28",
        "https://rickandmortyapi.com/api/episode/29",
        "https://rickandmortyapi.com/api/episode/30",
        "https://rickandmortyapi.com/api/episode/31",
        "https://rickandmortyapi.com/api/episode/32",
        "https://rickandmortyapi.com/api/episode/33",
        "https://rickandmortyapi.com/api/episode/34",
        "https://rickandmortyapi.com/api/episode/35",
        "https://rickandmortyapi.com/api/episode/36",
        "https://rickandmortyapi.com/api/episode/37",
        "https://rickandmortyapi.com/api/episode/38",
        "https://rickandmortyapi.com/api/episode/39",
        "https://rickandmortyapi.com/api/episode/40",
        "https://rickandmortyapi.com/api/episode/41",
        "https://rickandmortyapi.com/api/episode/42",
        "https://rickandmortyapi.com/api/episode/43",
        "https://rickandmortyapi.com/api/episode/44",
        "https://rickandmortyapi.com/api/episode/45",
        "https://rickandmortyapi.com/api/episode/46",
        "https://rickandmortyapi.com/api/episode/47",
        "https://rickandmortyapi.com/api/episode/48",
        "https://rickandmortyapi.com/api/episode/49",
        "https://rickandmortyapi.com/api/episode/50",
        "https://rickandmortyapi.com/api/episode/51"
      ],
      "url": "https://rickandmortyapi.com/api/character/2",
      "created": "2017-11-04T18:50:21.651Z"
    },
    {
      "id": 5,
      "name": "Jerry Smith",
      "status": "Alive",
      "species": "Human",
      "type": "",
      "gender": "Male",
      "origin": {
        "name": "Earth (Replacement Dimension)",
        "url": "https://rickandmortyapi.com/api/location/20"
      },
      "location": {
        "name": "Earth (Replacement Dimension)",
        "url": "https://rickandmortyapi.com/api/location/20"
      },
      "image": "https://rickandmortyapi.com/api/character/avatar/5.jpeg",
      "episode": [
        "https://rickandmortyapi.com/api/episode/6",
        "https://rickandmortyapi.com/api/episode/7",
        "https://rickandmortyapi.com/api/episode/8",
        "https://rickandmortyapi.com/api/episode/9",
        "https://rickandmortyapi.com/api/episode/10",
        "https://rickandmortyapi.com/api/episode/11",
        "https://rickandmortyapi.com/api/episode/12",
        "https://rickandmortyapi.com/api/episode/13",
        "https://rickandmortyapi.com/api/episode/14",
        "https://rickandmortyapi.com/api/episode/15",
        "https://rickandmortyapi.com/api/episode/16",
        "https://rickandmortyapi.com/api/episode/18",
        "https://rickandmortyapi.com/api/episode/19",
        "https://rickandmortyapi.com/api/episode/20",
        "https://rickandmortyapi.com/api/episode/21",
        "https://rickandmortyapi.com/api/episode/22",
        "https://rickandmortyapi.com/api/episode/23",
        "https://rickandmortyapi.com/api/episode/26",
        "https://rickandmortyapi.com/api/episode/29",
        "https://rickandmortyapi.com/api/episode/30",
        "https://rickandmortyapi.com/api/episode/31",
        "https://rickandmortyapi.com/api/episode/32",
        "https://rickandmortyapi.com/api/episode/33",
        "https://rickandmortyapi.com/api/episode/35",
        "https://rickandmortyapi.com/api/episode/36",
        "https://rickandmortyapi.com/api/episode/38",
        "https://rickandmortyapi.com/api/episode/39",
        "https://rickandmortyapi.com/api/episode/40",
        "https://rickandmortyapi.com/api/episode/41",
        "https://rickandmortyapi.com/api/episode/42",
        "https://rickandmortyapi.com/api/episode/43",
        "https://rickandmortyapi.com/api/episode/44",
        "https://rickandmortyapi.com/api/episode/45",
        "https://rickandmortyapi.com/api/episode/46",
        "https://rickandmortyapi.com/api/episode/47",
        "https://rickandmortyapi.com/api/episode/48",
        "https://rickandmortyapi.com/api/episode/49",
        "https://rickandmortyapi.com/api/episode/50",
        "https://rickandmortyapi.com/api/episode/51"
      ],
      "url": "https://rickandmortyapi.com/api/character/5",
      "created": "2017-11-04T19:26:56.301Z"
    },
    {
      "id": 18,
      "name": "Antenna Morty",
      "status": "Alive",
      "species": "Human",
      "type": "Human with antennae",
      "gender": "Male",
      "origin": {
        "name": "unknown",
        "url": ""
      },
      "location": {
        "name": "Citadel of Ricks",
        "url": "https://rickandmortyapi.com/api/location/3"
      },
      "image": "https://rickandmortyapi.com/api/character/avatar/18.jpeg",
      "episode": [
        "https://rickandmortyapi.com/api/episode/10",
        "https://rickandmortyapi.com/api/episode/28"
      ],
      "url": "https://rickandmortyapi.com/api/character/18",
      "created": "2017-11-04T22:25:29.008Z"
    },
    {
      "id": 24,
      "name": "Armagheadon",
      "status": "Alive",
      "species": "Alien",
      "type": "Cromulon",
      "gender": "Male",
      "origin": {
        "name": "Signus 5 Expanse",
        "url": "https://rickandmortyapi.com/api/location/22"
      },
      "location": {
        "name": "Signus 5 Expanse",
        "url": "https://rickandmortyapi.com/api/location/22"
      },
      "image": "https://rickandmortyapi.com/api/character/avatar/24.jpeg",
      "episode": [
        "https://rickandmortyapi.com/api/episode/16"
      ],
      "url": "https://rickandmortyapi.com/api/character/24",
      "created": "2017-11-05T08:48:30.776Z"
    },
    {
      "id": 27,
      "name": "Artist Morty",
      "status": "Alive",
      "species": "Human",
      "type": "",
      "gender": "Male",
      "origin": {
        "name": "unknown",
        "url": ""
      },
      "location": {
        "name": "Citadel of Ricks",
        "url": "https://rickandmortyapi.com/api/location/3"
      },
      "image": "https://rickandmortyapi.com/api/character/avatar/27.jpeg",
      "episode": [
        "https://rickandmortyapi.com/api/episode/10",
        "https://rickandmortyapi.com/api/episode/28"
      ],
      "url": "https://rickandmortyapi.com/api/character/27",
      "created": "2017-11-05T08:59:07.457Z"
    },
    {
      "id": 28,
      "name": "Attila Starwar",
      "status": "Alive",
      "species": "Human",
      "type": "",
      "gender": "Male",
      "origin": {
        "name": "unknown",
        "url": ""
      },
      "location": {
        "name": "Interdimensional Cable",
        "url": "https://rickandmortyapi.com/api/location/6"
      },
      "image": "https://rickandmortyapi.com/api/character/avatar/28.jpeg",
      "episode": [
        "https://rickandmortyapi.com/api/episode/8",
        "https://rickandmortyapi.com/api/episode/13",
        "https://rickandmortyapi.com/api/episode/17"
      ],
      "url": "https://rickandmortyapi.com/api/character/28",
      "created": "2017-11-05T09:02:16.595Z"
    },
    {
      "id": 29,
      "name": "Baby Legs",
      "status": "Alive",
      "species": "Human",
      "type": "Human with baby legs",
      "gender": "Male",
      "origin": {
        "name": "unknown",
        "url": ""
      },
      "location": {
        "name": "Interdimensional Cable",
        "url": "https://rickandmortyapi.com/api/location/6"
      },
      "image": "https://rickandmortyapi.com/api/character/avatar/29.jpeg",
      "episode": [
        "https://rickandmortyapi.com/api/episode/8"
      ],
      "url": "https://rickandmortyapi.com/api/character/29",
      "created": "2017-11-05T09:06:19.644Z"
    },
    {
      "id": 30,
      "name": "Baby Poopybutthole",
      "status": "Alive",
      "species": "Poopybutthole",
      "type": "",
      "gender": "Male",
      "origin": {
        "name": "unknown",
        "url": ""
      },
      "location": {
        "name": "unknown",
        "url": ""
      },
      "image": "https://rickandmortyapi.com/api/character/avatar/30.jpeg",
      "episode": [
        "https://rickandmortyapi.com/api/episode/31"
      ],
      "url": "https://rickandmortyapi.com/api/character/30",
      "created": "2017-11-05T09:13:16.483Z"
    },
    {
      "id": 34,
      "name": "Benjamin",
      "status": "Alive",
      "species": "Poopybutthole",
      "type": "",
      "gender": "Male",
      "origin": {
        "name": "unknown",
        "url": ""
      },
      "location": {
        "name": "Interdimensional Cable",
        "url": "https://rickandmortyapi.com/api/location/6"
      },
      "image": "https://rickandmortyapi.com/api/character/avatar/34.jpeg",
      "episode": [
        "https://rickandmortyapi.com/api/episode/8",
        "https://rickandmortyapi.com/api/episode/13",
        "https://rickandmortyapi.com/api/episode/17"
      ],
      "url": "https://rickandmortyapi.com/api/character/34",
      "created": "2017-11-05T09:24:04.748Z"
    },
    {
      "id": 45,
      "name": "Bill",
      "status": "Alive",
      "species": "Human",
      "type": "",
      "gender": "Male",
      "origin": {
        "name": "Earth (C-137)",
        "url": "https://rickandmortyapi.com/api/location/1"
      },
      "location": {
        "name": "Earth (C-137)",
        "url": "https://rickandmortyapi.com/api/location/1"
      },
      "image": "https://rickandmortyapi.com/api/character/avatar/45.jpeg",
      "episode": [
        "https://rickandmortyapi.com/api/episode/3"
      ],
      "url": "https://rickandmortyapi.com/api/character/45",
      "created": "2017-11-05T10:22:27.446Z"
    },
    {
      "id": 47,
      "name": "Birdperson",
      "status": "Alive",
      "species": "Alien",
      "type": "Bird-Person",
      "gender": "Male",
      "origin": {
        "name": "Bird World",
        "url": "https://rickandmortyapi.com/api/location/15"
      },
      "location": {
        "name": "Planet Squanch",
        "url": "https://rickandmortyapi.com/api/location/35"
      },
      "image": "https://rickandmortyapi.com/api/character/avatar/47.jpeg",
      "episode": [
        "https://rickandmortyapi.com/api/episode/11",
        "https://rickandmortyapi.com/api/episode/16",
        "https://rickandmortyapi.com/api/episode/21",
        "https://rickandmortyapi.com/api/episode/22",
        "https://rickandmortyapi.com/api/episode/26",
        "https://rickandmortyapi.com/api/episode/49",
        "https://rickandmortyapi.com/api/episode/51"
      ],
      "url": "https://rickandmortyapi.com/api/character/47",
      "created": "2017-11-05T11:13:36.018Z"
    },
    {
      "id": 48,
      "name": "Black Rick",
      "status": "Alive",
      "species": "Human",
      "type": "",
      "gender": "Male",
      "origin": {
        "name": "unknown",
        "url": ""
      },
      "location": {
        "name": "Citadel of Ricks",
        "url": "https://rickandmortyapi.com/api/location/3"
      },
      "image": "https://rickandmortyapi.com/api/character/avatar/48.jpeg",
      "episode": [
        "https://rickandmortyapi.com/api/episode/22",
        "https://rickandmortyapi.com/api/episode/28"
      ],
      "url": "https://rickandmortyapi.com/api/character/48",
      "created": "2017-11-05T11:15:26.044Z"
    },
    {
      "id": 50,
      "name": "Blim Blam",
      "status": "Alive",
      "species": "Alien",
      "type": "Korblock",
      "gender": "Male",
      "origin": {
        "name": "unknown",
        "url": ""
      },
      "location": {
        "name": "Earth (Replacement Dimension)",
        "url": "https://rickandmortyapi.com/api/location/20"
      },
      "image": "https://rickandmortyapi.com/api/character/avatar/50.jpeg",
      "episode": [
        "https://rickandmortyapi.com/api/episode/14"
      ],
      "url": "https://rickandmortyapi.com/api/character/50",
      "created": "2017-11-05T11:21:43.756Z"
    },
    {
      "id": 51,
      "name": "Blue Diplomat",
      "status": "Alive",
      "species": "Alien",
      "type": "",
      "gender": "Male",
      "origin": {
        "name": "unknown",
        "url": ""
      },
      "location": {
        "name": "Interdimensional Cable",
        "url": "https://rickandmortyapi.com/api/location/6"
      },
      "image": "https://rickandmortyapi.com/api/character/avatar/51.jpeg",
      "episode": [
        "https://rickandmortyapi.com/api/episode/19"
      ],
      "url": "https://rickandmortyapi.com/api/character/51",
      "created": "2017-11-05T11:24:49.688Z"
    },
    {
      "id": 54,
      "name": "Bobby Moynihan",
      "status": "Alive",
      "species": "Human",
      "type": "",
      "gender": "Male",
      "origin": {
        "name": "unknown",
        "url": ""
      },
      "location": {
        "name": "Interdimensional Cable",
        "url": "https://rickandmortyapi.com/api/location/6"
      },
      "image": "https://rickandmortyapi.com/api/character/avatar/54.jpeg",
      "episode": [
        "https://rickandmortyapi.com/api/episode/8"
      ],
      "url": "https://rickandmortyapi.com/api/character/54",
      "created": "2017-11-05T11:31:26.348Z"
    },
    {
      "id": 57,
      "name": "Borpocian",
      "status": "Alive",
      "species": "Alien",
      "type": "Elephant-Person",
      "gender": "Male",
      "origin": {
        "name": "unknown",
        "url": ""
      },
      "location": {
        "name": "unknown",
        "url": ""
      },
      "image": "https://rickandmortyapi.com/api/character/avatar/57.jpeg",
      "episode": [
        "https://rickandmortyapi.com/api/episode/22"
      ],
      "url": "https://rickandmortyapi.com/api/character/57",
      "created": "2017-11-05T11:38:29.459Z"
    },
    {
      "id": 58,
      "name": "Brad",
      "status": "Alive",
      "species": "Human",
      "type": "",
      "gender": "Male",
      "origin": {
        "name": "Earth (Replacement Dimension)",
        "url": "https://rickandmortyapi.com/api/location/20"
      },
      "location": {
        "name": "Earth (Replacement Dimension)",
        "url": "https://rickandmortyapi.com/api/location/20"
      },
      "image": "https://rickandmortyapi.com/api/character/avatar/58.jpeg",
      "episode": [
        "https://rickandmortyapi.com/api/episode/6",
        "https://rickandmortyapi.com/api/episode/11",
        "https://rickandmortyapi.com/api/episode/30",
        "https://rickandmortyapi.com/api/episode/46"
      ],
      "url": "https://rickandmortyapi.com/api/character/58",
      "created": "2017-11-05T11:40:02.554Z"
    },
    {
      "id": 63,
      "name": "Centaur",
      "status": "Alive",
      "species": "Mythological Creature",
      "type": "Centaur",
      "gender": "Male",
      "origin": {
        "name": "unknown",
        "url": ""
      },
      "location": {
        "name": "Mr. Goldenfold's dream",
        "url": "https://rickandmortyapi.com/api/location/18"
      },
      "image": "https://rickandmortyapi.com/api/character/avatar/63.jpeg",
      "episode": [
        "https://rickandmortyapi.com/api/episode/2"
      ],
      "url": "https://rickandmortyapi.com/api/character/63",
      "created": "2017-11-05T12:22:17.848Z"
    },
    {
      "id": 65,
      "name": "Chris",
      "status": "Alive",
      "species": "Humanoid",
      "type": "Microverse inhabitant",
      "gender": "Male",
      "origin": {
        "name": "Rick's Battery Microverse",
        "url": "https://rickandmortyapi.com/api/location/24"
      },
      "location": {
        "name": "Rick's Battery Microverse",
        "url": "https://rickandmortyapi.com/api/location/24"
      },
      "image": "https://rickandmortyapi.com/api/character/avatar/65.jpeg",
      "episode": [
        "https://rickandmortyapi.com/api/episode/17"
      ],
      "url": "https://rickandmortyapi.com/api/character/65",
      "created": "2017-11-30T11:02:41.935Z"
    }
  ]
}